Visualização de Dados em Farmacologia
…
✨ Construa um gráfico com os seguintes dados ✨

# A tibble: 259 × 31
   video animal_no_video sexo  tratamento animal_number tempo test_duration_s
   <chr> <chr>           <chr> <chr>      <chr>         <chr>           <dbl>
 1 G1V3  2               M     controle   1             Total            2400
 2 G1V2  8               M     controle   2             Total            2400
 3 G1V1  1               M     controle   3             Total            2400
 4 G1V1  3               M     controle   4             Total            2400
 5 G1V3  12              M     controle   5             Total            2400
 6 G2V1  2               M     controle   6             Total            2400
 7 G2V3  13              M     controle   7             Total            2400
 8 G2V4  1               M     controle   8             Total            2400
 9 G2V4  3               M     controle   9             Total            2400
10 G3V1  7               M     controle   10            Total            2400
# ℹ 249 more rows
# ℹ 24 more variables: total_distance_travelled_m <dbl>,
#   total_time_mobile_s <dbl>, total_time_immobile_s <dbl>,
#   total_mobile_episodes <dbl>, total_immobile_episodes <dbl>,
#   number_of_entries_to_the_agar_zone <dbl>, time_in_the_agar_zone_s <dbl>,
#   distance_travelled_in_the_agar_zone_m <dbl>,
#   time_mobile_in_the_agar_zone_s <dbl>, …
…
